{
	"data": [
		{
			"id": "4e621b5f-db60-4cd8-af95-b696d0bc755d",
			"accountId": "cf5ab06d-c457-4614-870f-4ad7c917e603",
			"type": "CONVERSION",
			"status": "COMPLETED",
			"amount": "10",
			"balanceBefore": "38.94",
			"balanceAfter": "38.94",
			"description": "Conversão BRL→USDT: R$ 10.00 → 1.71 USDT",
			"metadata": null,
			"payerName": null,
			"payerTaxNumber": null,
			"payerMessage": null,
			"receiverName": null,
			"receiverTaxNumber": null,
			"receiverPixKey": null,
			"receiverBankCode": null,
			"pixKey": null,
			"externalId": "CONV-1766327217536",
			"endToEnd": null,
			"txid": null,
			"externalData": {
				"spread": {
					"spreadBrl": 0.5,
					"chargedBrl": 10,
					"spreadRate": 0.95,
					"exchangedBrl": 9.5
				},
				"usdtAmount": 1.70863,
				"okxBuyResult": {
					"ordId": "3148238380864348160",
					"detalhes": [
						{
							"ts": "1766327215180",
							"fee": "-0.001366904",
							"tag": "",
							"side": "buy",
							"ordId": "3148238380864348160",
							"billId": "3148238380897902592",
							"feeCcy": "USDT",
							"fillPx": "5.56",
							"fillSz": "1.70863",
							"instId": "USDT-BRL",
							"clOrdId": "",
							"feeRate": "-0.0008",
							"fillPnl": "0",
							"posSide": "net",
							"subType": "1",
							"tradeId": "3269366",
							"execType": "T",
							"fillTime": "1766327215179",
							"instType": "SPOT",
							"fillFwdPx": "",
							"fillIdxPx": "1",
							"fillPxUsd": "",
							"fillPxVol": "",
							"fillMarkPx": "",
							"fillMarkVol": "",
							"tradeQuoteCcy": "BRL"
						}
					]
				}
			},
			"bankPayload": null,
			"errorMessage": null,
			"relatedTxId": null,
			"createdAt": "2025-12-21T14:26:57.537Z",
			"updatedAt": "2025-12-21T14:26:57.537Z",
			"processedAt": null,
			"completedAt": "2025-12-21T14:26:57.536Z"
		},
		{
			"id": "b96fa565-2490-4817-a4c8-38c81ce64928",
			"accountId": "cf5ab06d-c457-4614-870f-4ad7c917e603",
			"type": "PIX_OUT",
			"status": "COMPLETED",
			"amount": "10",
			"balanceBefore": "38.94",
			"balanceAfter": "28.94",
			"description": "572aac8c-949e-40d5-8b87-66cc164e9000",
			"metadata": null,
			"payerName": null,
			"payerTaxNumber": null,
			"payerMessage": null,
			"receiverName": null,
			"receiverTaxNumber": null,
			"receiverPixKey": null,
			"receiverBankCode": null,
			"pixKey": null,
			"externalId": "PIX-1766327209082",
			"endToEnd": null,
			"txid": null,
			"externalData": {
				"tipoRetorno": "PROCESSADO",
				"dataOperacao": "2025-12-21",
				"dataPagamento": "2025-12-21",
				"codigoSolicitacao": "1c2d0a8f-1b46-4821-9591-76c127c903db"
			},
			"bankPayload": null,
			"errorMessage": null,
			"relatedTxId": null,
			"createdAt": "2025-12-21T14:26:49.086Z",
			"updatedAt": "2025-12-21T14:26:49.086Z",
			"processedAt": null,
			"completedAt": "2025-12-21T14:26:49.083Z"
		},
		{
			"id": "9c085945-b7d1-48c8-82d6-eab53987c287",
			"accountId": "cf5ab06d-c457-4614-870f-4ad7c917e603",
			"type": "CONVERSION",
			"status": "COMPLETED",
			"amount": "10",
			"balanceBefore": "48.94",
			"balanceAfter": "48.94",
			"description": "Conversão BRL→USDT: R$ 10.00 → 1.71 USDT",
			"metadata": null,
			"payerName": null,
			"payerTaxNumber": null,
			"payerMessage": null,
			"receiverName": null,
			"receiverTaxNumber": null,
			"receiverPixKey": null,
			"receiverBankCode": null,
			"pixKey": null,
			"externalId": "CONV-1766325729073",
			"endToEnd": null,
			"txid": null,
			"externalData": {
				"spread": {
					"spreadBrl": 0.5,
					"chargedBrl": 10,
					"spreadRate": 0.95,
					"exchangedBrl": 9.5
				},
				"usdtAmount": 1.70863,
				"okxBuyResult": {
					"ordId": "3148188436166057984",
					"detalhes": [
						{
							"ts": "1766325726712",
							"fee": "-0.001366904",
							"tag": "",
							"side": "buy",
							"ordId": "3148188436166057984",
							"billId": "3148188436199612418",
							"feeCcy": "USDT",
							"fillPx": "5.56",
							"fillSz": "1.70863",
							"instId": "USDT-BRL",
							"clOrdId": "",
							"feeRate": "-0.0008",
							"fillPnl": "0",
							"posSide": "net",
							"subType": "1",
							"tradeId": "3269252",
							"execType": "T",
							"fillTime": "1766325726711",
							"instType": "SPOT",
							"fillFwdPx": "",
							"fillIdxPx": "1",
							"fillPxUsd": "",
							"fillPxVol": "",
							"fillMarkPx": "",
							"fillMarkVol": "",
							"tradeQuoteCcy": "BRL"
						}
					]
				}
			},
			"bankPayload": null,
			"errorMessage": null,
			"relatedTxId": null,
			"createdAt": "2025-12-21T14:02:09.075Z",
			"updatedAt": "2025-12-21T14:02:09.075Z",
			"processedAt": null,
			"completedAt": "2025-12-21T14:02:09.073Z"
		},
		{
			"id": "6554e8e7-4ed9-4cdd-a0e1-f236692cb3ff",
			"accountId": "cf5ab06d-c457-4614-870f-4ad7c917e603",
			"type": "PIX_OUT",
			"status": "COMPLETED",
			"amount": "10",
			"balanceBefore": "48.94",
			"balanceAfter": "38.94",
			"description": "572aac8c-949e-40d5-8b87-66cc164e9000",
			"metadata": null,
			"payerName": null,
			"payerTaxNumber": null,
			"payerMessage": null,
			"receiverName": null,
			"receiverTaxNumber": null,
			"receiverPixKey": null,
			"receiverBankCode": null,
			"pixKey": null,
			"externalId": "PIX-1766325720576",
			"endToEnd": null,
			"txid": null,
			"externalData": {
				"tipoRetorno": "PROCESSADO",
				"dataOperacao": "2025-12-21",
				"dataPagamento": "2025-12-21",
				"codigoSolicitacao": "2d17950d-1a62-43e8-87ed-5b609a0fc124"
			},
			"bankPayload": null,
			"errorMessage": null,
			"relatedTxId": null,
			"createdAt": "2025-12-21T14:02:00.580Z",
			"updatedAt": "2025-12-21T14:02:00.580Z",
			"processedAt": null,
			"completedAt": "2025-12-21T14:02:00.577Z"
		},
		{
			"id": "c85e9888-5821-4928-be8f-72a7caa97e55",
			"accountId": "cf5ab06d-c457-4614-870f-4ad7c917e603",
			"type": "CONVERSION",
			"status": "COMPLETED",
			"amount": "10",
			"balanceBefore": "58.94",
			"balanceAfter": "58.94",
			"description": "Conversão BRL→USDT: R$ 10.00 → 1.71 USDT",
			"metadata": null,
			"payerName": null,
			"payerTaxNumber": null,
			"payerMessage": null,
			"receiverName": null,
			"receiverTaxNumber": null,
			"receiverPixKey": null,
			"receiverBankCode": null,
			"pixKey": null,
			"externalId": "CONV-1766322650414",
			"endToEnd": null,
			"txid": null,
			"externalData": {
				"spread": {
					"spreadBrl": 0.5,
					"chargedBrl": 10,
					"spreadRate": 0.95,
					"exchangedBrl": 9.5
				},
				"usdtAmount": 1.70894,
				"okxBuyResult": {
					"ordId": "3148085134149525504",
					"detalhes": [
						{
							"ts": "1766322648072",
							"fee": "-0.001367152",
							"tag": "",
							"side": "buy",
							"ordId": "3148085134149525504",
							"billId": "3148085134183079936",
							"feeCcy": "USDT",
							"fillPx": "5.559",
							"fillSz": "1.70894",
							"instId": "USDT-BRL",
							"clOrdId": "",
							"feeRate": "-0.0008",
							"fillPnl": "0",
							"posSide": "net",
							"subType": "1",
							"tradeId": "3269051",
							"execType": "T",
							"fillTime": "1766322648071",
							"instType": "SPOT",
							"fillFwdPx": "",
							"fillIdxPx": "1",
							"fillPxUsd": "",
							"fillPxVol": "",
							"fillMarkPx": "",
							"fillMarkVol": "",
							"tradeQuoteCcy": "BRL"
						}
					]
				}
			},
			"bankPayload": null,
			"errorMessage": null,
			"relatedTxId": null,
			"createdAt": "2025-12-21T13:10:50.415Z",
			"updatedAt": "2025-12-21T13:10:50.415Z",
			"processedAt": null,
			"completedAt": "2025-12-21T13:10:50.414Z"
		},
		{
			"id": "d9929c85-036f-4824-84bc-a6445501b199",
			"accountId": "cf5ab06d-c457-4614-870f-4ad7c917e603",
			"type": "PIX_OUT",
			"status": "COMPLETED",
			"amount": "10",
			"balanceBefore": "58.94",
			"balanceAfter": "48.94",
			"description": "572aac8c-949e-40d5-8b87-66cc164e9000",
			"metadata": null,
			"payerName": null,
			"payerTaxNumber": null,
			"payerMessage": null,
			"receiverName": null,
			"receiverTaxNumber": null,
			"receiverPixKey": null,
			"receiverBankCode": null,
			"pixKey": null,
			"externalId": "PIX-1766322641980",
			"endToEnd": null,
			"txid": null,
			"externalData": {
				"tipoRetorno": "PROCESSADO",
				"dataOperacao": "2025-12-21",
				"dataPagamento": "2025-12-21",
				"codigoSolicitacao": "ada4914d-927b-4a01-982d-40cd558a1694"
			},
			"bankPayload": null,
			"errorMessage": null,
			"relatedTxId": null,
			"createdAt": "2025-12-21T13:10:41.982Z",
			"updatedAt": "2025-12-21T13:10:41.982Z",
			"processedAt": null,
			"completedAt": "2025-12-21T13:10:41.981Z"
		},
		{
			"id": "1b775f91-7d31-4dba-ae94-b0c15fb56490",
			"accountId": "cf5ab06d-c457-4614-870f-4ad7c917e603",
			"type": "PIX_IN",
			"status": "COMPLETED",
			"amount": "50",
			"balanceBefore": "8.94",
			"balanceAfter": "58.94",
			"description": "Aguardando depósito PIX de Gustavo Altevir da Costa",
			"metadata": null,
			"payerName": "Gustavo Altevir da Costa",
			"payerTaxNumber": "***363589**",
			"payerMessage": "",
			"receiverName": null,
			"receiverTaxNumber": null,
			"receiverPixKey": null,
			"receiverBankCode": null,
			"pixKey": "d5824777-38cb-410e-91d9-80f2e9e79d6e",
			"externalId": null,
			"endToEnd": "E18236120202512211304s06ffa868fb",
			"txid": "OTSEM572AAC8C949EMJFQO9UK03RWVA",
			"externalData": null,
			"bankPayload": {
				"txid": "OTSEM572AAC8C949EMJFQO9UK03RWVA",
				"chave": "d5824777-38cb-410e-91d9-80f2e9e79d6e",
				"valor": "50.0",
				"horario": "2025-12-21T13:04:50.489Z",
				"pagador": {
					"nome": "Gustavo Altevir da Costa",
					"cpfCnpj": "***363589**"
				},
				"devolucoes": [],
				"endToEndId": "E18236120202512211304s06ffa868fb",
				"infoPagador": "",
				"componentesValor": {
					"original": {
						"valor": "50.0"
					}
				}
			},
			"errorMessage": null,
			"relatedTxId": null,
			"createdAt": "2025-12-21T13:04:30.743Z",
			"updatedAt": "2025-12-21T13:04:52.379Z",
			"processedAt": "2025-12-21T13:04:52.377Z",
			"completedAt": "2025-12-21T13:04:52.377Z"
		},
		{
			"id": "3a47c75e-d35a-4f2d-8c3a-4a06ca62f6e9",
			"accountId": "cf5ab06d-c457-4614-870f-4ad7c917e603",
			"type": "CONVERSION",
			"status": "COMPLETED",
			"amount": "10",
			"balanceBefore": "18.94",
			"balanceAfter": "18.94",
			"description": "Conversão BRL→USDT: R$ 10.00 → 1.71 USDT",
			"metadata": null,
			"payerName": null,
			"payerTaxNumber": null,
			"payerMessage": null,
			"receiverName": null,
			"receiverTaxNumber": null,
			"receiverPixKey": null,
			"receiverBankCode": null,
			"pixKey": null,
			"externalId": "CONV-1766321716520",
			"endToEnd": null,
			"txid": null,
			"externalData": {
				"spread": {
					"spreadBrl": 0.5,
					"chargedBrl": 10,
					"spreadRate": 0.95,
					"exchangedBrl": 9.5
				},
				"usdtAmount": 1.70894,
				"okxBuyResult": {
					"ordId": "3148053796692402176",
					"detalhes": [
						{
							"ts": "1766321714143",
							"fee": "-0.001367152",
							"tag": "",
							"side": "buy",
							"ordId": "3148053796692402176",
							"billId": "3148053796725956608",
							"feeCcy": "USDT",
							"fillPx": "5.559",
							"fillSz": "1.70894",
							"instId": "USDT-BRL",
							"clOrdId": "",
							"feeRate": "-0.0008",
							"fillPnl": "0",
							"posSide": "net",
							"subType": "1",
							"tradeId": "3268920",
							"execType": "T",
							"fillTime": "1766321714142",
							"instType": "SPOT",
							"fillFwdPx": "",
							"fillIdxPx": "1",
							"fillPxUsd": "",
							"fillPxVol": "",
							"fillMarkPx": "",
							"fillMarkVol": "",
							"tradeQuoteCcy": "BRL"
						}
					]
				}
			},
			"bankPayload": null,
			"errorMessage": null,
			"relatedTxId": null,
			"createdAt": "2025-12-21T12:55:16.522Z",
			"updatedAt": "2025-12-21T12:55:16.522Z",
			"processedAt": null,
			"completedAt": "2025-12-21T12:55:16.520Z"
		},
		{
			"id": "8bebbd77-6301-4824-b077-f498d2a2a68e",
			"accountId": "cf5ab06d-c457-4614-870f-4ad7c917e603",
			"type": "PIX_OUT",
			"status": "COMPLETED",
			"amount": "10",
			"balanceBefore": "18.94",
			"balanceAfter": "8.94",
			"description": "572aac8c-949e-40d5-8b87-66cc164e9000",
			"metadata": null,
			"payerName": null,
			"payerTaxNumber": null,
			"payerMessage": null,
			"receiverName": null,
			"receiverTaxNumber": null,
			"receiverPixKey": null,
			"receiverBankCode": null,
			"pixKey": null,
			"externalId": "PIX-1766321707838",
			"endToEnd": null,
			"txid": null,
			"externalData": {
				"tipoRetorno": "PROCESSADO",
				"dataOperacao": "2025-12-21",
				"dataPagamento": "2025-12-21",
				"codigoSolicitacao": "a252c255-c944-4655-8128-4b6d361e4a80"
			},
			"bankPayload": null,
			"errorMessage": null,
			"relatedTxId": null,
			"createdAt": "2025-12-21T12:55:07.842Z",
			"updatedAt": "2025-12-21T12:55:07.842Z",
			"processedAt": null,
			"completedAt": "2025-12-21T12:55:07.838Z"
		},
		{
			"id": "d9c2c576-3ab0-4a5f-8d7d-69a17686a180",
			"accountId": "cf5ab06d-c457-4614-870f-4ad7c917e603",
			"type": "CONVERSION",
			"status": "COMPLETED",
			"amount": "10",
			"balanceBefore": "28.94",
			"balanceAfter": "28.94",
			"description": "Conversão BRL→USDT: R$ 10.00 → 1.72 USDT",
			"metadata": null,
			"payerName": null,
			"payerTaxNumber": null,
			"payerMessage": null,
			"receiverName": null,
			"receiverTaxNumber": null,
			"receiverPixKey": null,
			"receiverBankCode": null,
			"pixKey": null,
			"externalId": "CONV-1766170640382",
			"endToEnd": null,
			"txid": null,
			"externalData": {
				"spread": {
					"spreadBrl": 0.5,
					"chargedBrl": 10,
					"spreadRate": 0.95,
					"exchangedBrl": 9.5
				},
				"usdtAmount": 1.71666,
				"okxBuyResult": {
					"ordId": "3142984523431256064",
					"detalhes": [
						{
							"ts": "1766170638027",
							"fee": "-0.001373328",
							"tag": "",
							"side": "buy",
							"ordId": "3142984523431256064",
							"billId": "3142984523464810496",
							"feeCcy": "USDT",
							"fillPx": "5.534",
							"fillSz": "1.71666",
							"instId": "USDT-BRL",
							"clOrdId": "",
							"feeRate": "-0.0008",
							"fillPnl": "0",
							"posSide": "net",
							"subType": "1",
							"tradeId": "3257474",
							"execType": "T",
							"fillTime": "1766170638026",
							"instType": "SPOT",
							"fillFwdPx": "",
							"fillIdxPx": "1",
							"fillPxUsd": "",
							"fillPxVol": "",
							"fillMarkPx": "",
							"fillMarkVol": "",
							"tradeQuoteCcy": "BRL"
						}
					]
				}
			},
			"bankPayload": null,
			"errorMessage": null,
			"relatedTxId": null,
			"createdAt": "2025-12-19T18:57:20.383Z",
			"updatedAt": "2025-12-19T18:57:20.383Z",
			"processedAt": null,
			"completedAt": "2025-12-19T18:57:20.382Z"
		},
		{
			"id": "afc66797-528a-45f7-9791-b92fa58598a5",
			"accountId": "cf5ab06d-c457-4614-870f-4ad7c917e603",
			"type": "PIX_OUT",
			"status": "COMPLETED",
			"amount": "10",
			"balanceBefore": "28.94",
			"balanceAfter": "18.94",
			"description": "572aac8c-949e-40d5-8b87-66cc164e9000",
			"metadata": null,
			"payerName": null,
			"payerTaxNumber": null,
			"payerMessage": null,
			"receiverName": null,
			"receiverTaxNumber": null,
			"receiverPixKey": null,
			"receiverBankCode": null,
			"pixKey": null,
			"externalId": "PIX-1766170631893",
			"endToEnd": null,
			"txid": null,
			"externalData": {
				"tipoRetorno": "PROCESSADO",
				"dataOperacao": "2025-12-19",
				"dataPagamento": "2025-12-19",
				"codigoSolicitacao": "c3db7eb2-c7ee-455e-ae9f-313c7b14177f"
			},
			"bankPayload": null,
			"errorMessage": null,
			"relatedTxId": null,
			"createdAt": "2025-12-19T18:57:11.896Z",
			"updatedAt": "2025-12-19T18:57:11.896Z",
			"processedAt": null,
			"completedAt": "2025-12-19T18:57:11.894Z"
		},
		{
			"id": "3e972d7f-74d0-4de6-891e-f77d942c1da9",
			"accountId": "cf5ab06d-c457-4614-870f-4ad7c917e603",
			"type": "CONVERSION",
			"status": "COMPLETED",
			"amount": "10",
			"balanceBefore": "38.94",
			"balanceAfter": "38.94",
			"description": "Conversão BRL→USDT: R$ 10.00",
			"metadata": null,
			"payerName": null,
			"payerTaxNumber": null,
			"payerMessage": null,
			"receiverName": null,
			"receiverTaxNumber": null,
			"receiverPixKey": null,
			"receiverBankCode": null,
			"pixKey": null,
			"externalId": "CONV-1766166402417",
			"endToEnd": null,
			"txid": null,
			"externalData": {
				"spread": {
					"spreadBrl": 0.5,
					"chargedBrl": 10,
					"spreadRate": 0.95,
					"exchangedBrl": 9.5
				},
				"okxBuyResult": {
					"msg": "",
					"code": "0",
					"data": [
						{
							"ts": "1766166402308",
							"tag": "",
							"sMsg": "Order placed",
							"ordId": "3142842396319653888",
							"sCode": "0",
							"clOrdId": ""
						}
					],
					"inTime": "1766166402307811",
					"outTime": "1766166402308754"
				}
			},
			"bankPayload": null,
			"errorMessage": null,
			"relatedTxId": null,
			"createdAt": "2025-12-19T17:46:42.418Z",
			"updatedAt": "2025-12-19T17:46:42.418Z",
			"processedAt": null,
			"completedAt": "2025-12-19T17:46:42.417Z"
		},
		{
			"id": "fa85da73-0c88-4c39-8c69-f43a662f60ba",
			"accountId": "cf5ab06d-c457-4614-870f-4ad7c917e603",
			"type": "PIX_OUT",
			"status": "COMPLETED",
			"amount": "10",
			"balanceBefore": "38.94",
			"balanceAfter": "28.94",
			"description": "572aac8c-949e-40d5-8b87-66cc164e9000",
			"metadata": null,
			"payerName": null,
			"payerTaxNumber": null,
			"payerMessage": null,
			"receiverName": null,
			"receiverTaxNumber": null,
			"receiverPixKey": null,
			"receiverBankCode": null,
			"pixKey": null,
			"externalId": "PIX-1766166396162",
			"endToEnd": null,
			"txid": null,
			"externalData": {
				"tipoRetorno": "PROCESSADO",
				"dataOperacao": "2025-12-19",
				"dataPagamento": "2025-12-19",
				"codigoSolicitacao": "cec82cb8-2f2a-4520-bfab-70bbb7176339"
			},
			"bankPayload": null,
			"errorMessage": null,
			"relatedTxId": null,
			"createdAt": "2025-12-19T17:46:36.165Z",
			"updatedAt": "2025-12-19T17:46:36.165Z",
			"processedAt": null,
			"completedAt": "2025-12-19T17:46:36.162Z"
		},
		{
			"id": "757ca419-cba5-45da-8daf-319bcd3e703a",
			"accountId": "cf5ab06d-c457-4614-870f-4ad7c917e603",
			"type": "PIX_OUT",
			"status": "COMPLETED",
			"amount": "10",
			"balanceBefore": "48.94",
			"balanceAfter": "38.94",
			"description": "572aac8c-949e-40d5-8b87-66cc164e9000",
			"metadata": null,
			"payerName": null,
			"payerTaxNumber": null,
			"payerMessage": null,
			"receiverName": null,
			"receiverTaxNumber": null,
			"receiverPixKey": null,
			"receiverBankCode": null,
			"pixKey": null,
			"externalId": "PIX-1766162834490",
			"endToEnd": null,
			"txid": null,
			"externalData": {
				"tipoRetorno": "PROCESSADO",
				"dataOperacao": "2025-12-19",
				"dataPagamento": "2025-12-19",
				"codigoSolicitacao": "b48a3f29-2a84-434a-97f8-f14f21cb7164"
			},
			"bankPayload": null,
			"errorMessage": null,
			"relatedTxId": null,
			"createdAt": "2025-12-19T16:47:14.493Z",
			"updatedAt": "2025-12-19T16:47:14.493Z",
			"processedAt": null,
			"completedAt": "2025-12-19T16:47:14.491Z"
		},
		{
			"id": "69027bb5-3f1a-42e3-8680-1ea1a94032c4",
			"accountId": "cf5ab06d-c457-4614-870f-4ad7c917e603",
			"type": "PIX_OUT",
			"status": "COMPLETED",
			"amount": "10",
			"balanceBefore": "58.94",
			"balanceAfter": "48.94",
			"description": "572aac8c-949e-40d5-8b87-66cc164e9000",
			"metadata": null,
			"payerName": null,
			"payerTaxNumber": null,
			"payerMessage": null,
			"receiverName": null,
			"receiverTaxNumber": null,
			"receiverPixKey": null,
			"receiverBankCode": null,
			"pixKey": null,
			"externalId": "PIX-1766160479015",
			"endToEnd": null,
			"txid": null,
			"externalData": {
				"tipoRetorno": "PROCESSADO",
				"dataOperacao": "2025-12-19",
				"dataPagamento": "2025-12-19",
				"codigoSolicitacao": "6069be03-9fad-4caf-b8cb-240f25d91a58"
			},
			"bankPayload": null,
			"errorMessage": null,
			"relatedTxId": null,
			"createdAt": "2025-12-19T16:07:59.019Z",
			"updatedAt": "2025-12-19T16:07:59.019Z",
			"processedAt": null,
			"completedAt": "2025-12-19T16:07:59.016Z"
		},
		{
			"id": "2358ebae-34a7-47dc-9b4b-0ac3fab2d2bc",
			"accountId": "cf5ab06d-c457-4614-870f-4ad7c917e603",
			"type": "PIX_OUT",
			"status": "COMPLETED",
			"amount": "100",
			"balanceBefore": "158.94",
			"balanceAfter": "58.94",
			"description": "Transferência PIX para cmtehenz@gmail.com",
			"metadata": null,
			"payerName": null,
			"payerTaxNumber": null,
			"payerMessage": null,
			"receiverName": null,
			"receiverTaxNumber": null,
			"receiverPixKey": null,
			"receiverBankCode": null,
			"pixKey": null,
			"externalId": "PIX-1766156461839",
			"endToEnd": null,
			"txid": null,
			"externalData": {
				"tipoRetorno": "PROCESSADO",
				"dataOperacao": "2025-12-19",
				"dataPagamento": "2025-12-19",
				"codigoSolicitacao": "70777972-f2e3-4710-b92a-3565f79772de"
			},
			"bankPayload": null,
			"errorMessage": null,
			"relatedTxId": null,
			"createdAt": "2025-12-19T15:01:01.844Z",
			"updatedAt": "2025-12-19T15:01:01.844Z",
			"processedAt": null,
			"completedAt": "2025-12-19T15:01:01.840Z"
		},
		{
			"id": "a1bc51ff-8046-42ac-956b-5014ba587d77",
			"accountId": "cf5ab06d-c457-4614-870f-4ad7c917e603",
			"type": "PIX_OUT",
			"status": "COMPLETED",
			"amount": "0.5",
			"balanceBefore": "159.44",
			"balanceAfter": "158.94",
			"description": "descricao",
			"metadata": null,
			"payerName": null,
			"payerTaxNumber": null,
			"payerMessage": null,
			"receiverName": null,
			"receiverTaxNumber": null,
			"receiverPixKey": null,
			"receiverBankCode": null,
			"pixKey": null,
			"externalId": "PIX-1766153831796",
			"endToEnd": null,
			"txid": null,
			"externalData": {
				"tipoRetorno": "PROCESSADO",
				"dataOperacao": "2025-12-19",
				"dataPagamento": "2025-12-19",
				"codigoSolicitacao": "55b8d5f2-108f-4f3b-b2d9-75c10dac84ad"
			},
			"bankPayload": null,
			"errorMessage": null,
			"relatedTxId": null,
			"createdAt": "2025-12-19T14:17:11.800Z",
			"updatedAt": "2025-12-19T14:17:11.800Z",
			"processedAt": null,
			"completedAt": "2025-12-19T14:17:11.797Z"
		},
		{
			"id": "9cbe82f4-5d13-44fd-897a-27088cce9d00",
			"accountId": "cf5ab06d-c457-4614-870f-4ad7c917e603",
			"type": "PIX_OUT",
			"status": "COMPLETED",
			"amount": "10",
			"balanceBefore": "169.44",
			"balanceAfter": "159.44",
			"description": "Transferência PIX",
			"metadata": null,
			"payerName": null,
			"payerTaxNumber": null,
			"payerMessage": null,
			"receiverName": null,
			"receiverTaxNumber": null,
			"receiverPixKey": null,
			"receiverBankCode": null,
			"pixKey": null,
			"externalId": "PIX-1766148789220",
			"endToEnd": null,
			"txid": null,
			"externalData": {
				"tipoRetorno": "PROCESSADO",
				"dataOperacao": "2025-12-19",
				"dataPagamento": "2025-12-19",
				"codigoSolicitacao": "15e54085-c1a6-4f0b-8d68-95a8f2e81b8b"
			},
			"bankPayload": null,
			"errorMessage": null,
			"relatedTxId": null,
			"createdAt": "2025-12-19T12:53:09.222Z",
			"updatedAt": "2025-12-19T12:53:09.222Z",
			"processedAt": null,
			"completedAt": "2025-12-19T12:53:09.221Z"
		},
		{
			"id": "5141fac9-4f26-4c55-bc12-011335dcd074",
			"accountId": "cf5ab06d-c457-4614-870f-4ad7c917e603",
			"type": "PIX_OUT",
			"status": "COMPLETED",
			"amount": "0.5",
			"balanceBefore": "169.94",
			"balanceAfter": "169.44",
			"description": "Transferência teste",
			"metadata": null,
			"payerName": null,
			"payerTaxNumber": null,
			"payerMessage": null,
			"receiverName": null,
			"receiverTaxNumber": null,
			"receiverPixKey": null,
			"receiverBankCode": null,
			"pixKey": null,
			"externalId": "PIX-1766148529058",
			"endToEnd": null,
			"txid": null,
			"externalData": {
				"tipoRetorno": "PROCESSADO",
				"dataOperacao": "2025-12-19",
				"dataPagamento": "2025-12-19",
				"codigoSolicitacao": "363b8def-d09b-44a9-a354-708c07be3abd"
			},
			"bankPayload": null,
			"errorMessage": null,
			"relatedTxId": null,
			"createdAt": "2025-12-19T12:48:49.061Z",
			"updatedAt": "2025-12-19T12:48:49.061Z",
			"processedAt": null,
			"completedAt": "2025-12-19T12:48:49.059Z"
		},
		{
			"id": "c2c9d93c-0b6b-43db-bb61-98a3fda876b9",
			"accountId": "cf5ab06d-c457-4614-870f-4ad7c917e603",
			"type": "PIX_IN",
			"status": "COMPLETED",
			"amount": "1.35",
			"balanceBefore": "168.59",
			"balanceAfter": "169.94",
			"description": "Aguardando depósito PIX de Gustavo Altevir da Costa",
			"metadata": null,
			"payerName": "Gustavo Altevir da Costa",
			"payerTaxNumber": "***363589**",
			"payerMessage": "",
			"receiverName": null,
			"receiverTaxNumber": null,
			"receiverPixKey": null,
			"receiverBankCode": null,
			"pixKey": "d5824777-38cb-410e-91d9-80f2e9e79d6e",
			"externalId": null,
			"endToEnd": "E18236120202512191141s06777e7885",
			"txid": "OTSEM572AAC8C949EMJCSSZSEV6BGL3",
			"externalData": null,
			"bankPayload": {
				"txid": "OTSEM572AAC8C949EMJCSSZSEV6BGL3",
				"chave": "d5824777-38cb-410e-91d9-80f2e9e79d6e",
				"valor": "1.35",
				"horario": "2025-12-19T11:41:15.998Z",
				"pagador": {
					"nome": "Gustavo Altevir da Costa",
					"cpfCnpj": "***363589**"
				},
				"devolucoes": [],
				"endToEndId": "E18236120202512191141s06777e7885",
				"infoPagador": "",
				"componentesValor": {
					"original": {
						"valor": "1.35"
					}
				}
			},
			"errorMessage": null,
			"relatedTxId": null,
			"createdAt": "2025-12-19T11:40:53.417Z",
			"updatedAt": "2025-12-19T11:41:17.917Z",
			"processedAt": "2025-12-19T11:41:17.914Z",
			"completedAt": "2025-12-19T11:41:17.914Z"
		}
	],
	"pagination": {
		"page": 1,
		"limit": 20,
		"total": 25,
		"totalPages": 2,
		"hasNext": true,
		"hasPrev": false
	}
}